[gd_scene load_steps=7 format=3 uid="uid://b2bxats50rt8b"]

[ext_resource type="Script" path="res://utils/switch_old.gd" id="1_rd0qi"]
[ext_resource type="Material" uid="uid://cbq0lps3py6n0" path="res://materials/switch_on.tres" id="2_g7d7c"]
[ext_resource type="Material" uid="uid://c18ijfjwmoxyg" path="res://materials/switch_off.tres" id="2_wa654"]
[ext_resource type="CylinderMesh" uid="uid://cc6kp8oqe08x3" path="res://assets/switch.tres" id="3_1a8sf"]
[ext_resource type="PackedScene" uid="uid://b72id5ajoipbt" path="res://utils/interaction/interaction_area/InteractionArea.tscn" id="3_y1r7n"]

[sub_resource type="CapsuleShape3D" id="CapsuleShape3D_5ej3d"]
radius = 1.0

[node name="switch" type="Node3D"]
script = ExtResource("1_rd0qi")
on_material = ExtResource("2_g7d7c")

[node name="MeshInstance3D" type="MeshInstance3D" parent="."]
transform = Transform3D(1, 0, 0, 0, -4.37114e-08, -1, 0, 1, -4.37114e-08, 0, 0, 0)
mesh = ExtResource("3_1a8sf")
surface_material_override/0 = ExtResource("2_wa654")

[node name="InteractionArea" parent="." instance=ExtResource("3_y1r7n")]

[node name="CollisionShape3D" type="CollisionShape3D" parent="InteractionArea"]
shape = SubResource("CapsuleShape3D_5ej3d")
